## Interface: 80300
## Title: DrBindings
## Notes: A simple binding manager
## Version: 0.1
## Author: WobLight
## SavedVariables: DrBindingsSettings
## SavedVariablesPerCharacter: DrBindingsProfile
## Dependencies: EmeraldFramework
DrBindings.lua
external\sha2.lua
